{
	"id": "3f4a01e0-ffd5-13a2-6bb3-5102b7eccf7d",
	"name": "qrius-assignment",
	"description": "",
	"order": [
		"a8cae48d-63e6-59fc-b5ae-c538cd16e80d",
		"63989ea5-56ad-9f32-bf5d-9e714701e41f",
		"3b19926e-6325-a768-5fd7-ed4070c80167",
		"8a079cf9-86a9-850b-ac88-edaa4da3183a"
	],
	"folders": [],
	"folders_order": [],
	"timestamp": 1518947078657,
	"owner": "3753477",
	"public": false,
	"events": [],
	"variables": [],
	"auth": null,
	"requests": [
		{
			"id": "3b19926e-6325-a768-5fd7-ed4070c80167",
			"headers": "Content-Type: application/json\n",
			"headerData": [
				{
					"key": "Content-Type",
					"value": "application/json",
					"description": "",
					"enabled": true
				}
			],
			"url": "http://localhost:3000/register",
			"queryParams": [],
			"events": [],
			"pathVariables": {},
			"pathVariableData": [],
			"method": "POST",
			"data": [],
			"dataMode": "raw",
			"auth": null,
			"time": 1518947330474,
			"name": "http://localhost:3000/login",
			"description": "Login Route to login to the application",
			"collectionId": "3f4a01e0-ffd5-13a2-6bb3-5102b7eccf7d",
			"responses": [],
			"currentHelper": null,
			"helperAttributes": null,
			"rawModeData": "{\n\t\"email\": \"siddhartlanka@gmail.com\",\n\t\"password\": \"test123\",\n\t\"username\": \"test\",\n\t\"name\": \"Test Name\"\n}"
		},
		{
			"id": "63989ea5-56ad-9f32-bf5d-9e714701e41f",
			"headers": "hwt-auth: eyJhbGciOiJIUzI1NiIsInR5cCI6IkpXVCJ9.eyJfaWQiOiI1YTg4NzM1N2UzNWFhNjBiOWQxMzU2NjciLCJhY2Nlc3MiOiJhdXRoIiwiaWF0IjoxNTE4OTQ0NjIxfQ.fHStvjqzHqvU8X-HXopYNb1wh2dCOJZApk6LMnL-x1U\n",
			"headerData": [
				{
					"key": "hwt-auth",
					"value": "eyJhbGciOiJIUzI1NiIsInR5cCI6IkpXVCJ9.eyJfaWQiOiI1YTg4NzM1N2UzNWFhNjBiOWQxMzU2NjciLCJhY2Nlc3MiOiJhdXRoIiwiaWF0IjoxNTE4OTQ0NjIxfQ.fHStvjqzHqvU8X-HXopYNb1wh2dCOJZApk6LMnL-x1U",
					"description": "",
					"enabled": true
				}
			],
			"url": "http://localhost:3000/message/5a89419b7b88da151ed676db",
			"queryParams": [],
			"pathVariables": {},
			"pathVariableData": [],
			"events": [],
			"auth": null,
			"method": "GET",
			"collectionId": "3f4a01e0-ffd5-13a2-6bb3-5102b7eccf7d",
			"data": null,
			"dataMode": "params",
			"name": "http://localhost:3000/message/5a89419b7b88da151ed676db",
			"description": "query with a particular message id ",
			"descriptionFormat": "html",
			"time": 1518947219040,
			"version": 2,
			"responses": [],
			"currentHelper": null,
			"helperAttributes": null
		},
		{
			"id": "8a079cf9-86a9-850b-ac88-edaa4da3183a",
			"headers": "Content-Type: application/json\n",
			"headerData": [
				{
					"key": "Content-Type",
					"value": "application/json",
					"description": "",
					"enabled": true
				}
			],
			"url": "http://localhost:3000/register",
			"queryParams": [],
			"pathVariables": {},
			"pathVariableData": [],
			"events": [],
			"auth": null,
			"method": "POST",
			"collectionId": "3f4a01e0-ffd5-13a2-6bb3-5102b7eccf7d",
			"data": [],
			"dataMode": "raw",
			"name": "http://localhost:3000/register",
			"description": "Register a user",
			"descriptionFormat": "html",
			"time": 1518947355894,
			"version": 2,
			"responses": [],
			"currentHelper": null,
			"helperAttributes": null,
			"rawModeData": "{\n\t\"email\": \"siddhartlanka@gmail.com\",\n\t\"password\": \"test123\",\n\t\"username\": \"test\",\n\t\"name\": \"Test Name\"\n}"
		},
		{
			"id": "a8cae48d-63e6-59fc-b5ae-c538cd16e80d",
			"headers": "jwt-auth: eyJhbGciOiJIUzI1NiIsInR5cCI6IkpXVCJ9.eyJfaWQiOiI1YTg4NzM1N2UzNWFhNjBiOWQxMzU2NjciLCJhY2Nlc3MiOiJhdXRoIiwiaWF0IjoxNTE4OTQ0NjIxfQ.fHStvjqzHqvU8X-HXopYNb1wh2dCOJZApk6LMnL-x1U\n",
			"headerData": [
				{
					"key": "jwt-auth",
					"value": "eyJhbGciOiJIUzI1NiIsInR5cCI6IkpXVCJ9.eyJfaWQiOiI1YTg4NzM1N2UzNWFhNjBiOWQxMzU2NjciLCJhY2Nlc3MiOiJhdXRoIiwiaWF0IjoxNTE4OTQ0NjIxfQ.fHStvjqzHqvU8X-HXopYNb1wh2dCOJZApk6LMnL-x1U",
					"description": "",
					"enabled": true
				}
			],
			"url": "http://localhost:3000/message/5a89419b7b88da151ed676db",
			"queryParams": [],
			"events": [],
			"pathVariables": {},
			"pathVariableData": [],
			"method": "GET",
			"data": null,
			"dataMode": "params",
			"auth": null,
			"time": 1518947150003,
			"name": "http://localhost:3000/message",
			"description": "Gets all messages in db for a particular user(authenticated user)",
			"collectionId": "3f4a01e0-ffd5-13a2-6bb3-5102b7eccf7d",
			"responses": [],
			"currentHelper": null,
			"helperAttributes": null
		}
	]
}